-target:library
-out:"Library/Bee/artifacts/1900b0aE.dag/Assembly-CSharp.dll"
-refout:"Library/Bee/artifacts/1900b0aE.dag/Assembly-CSharp.ref.dll"
-define:UNITY_2021_1_23
-define:UNITY_2021_1
-define:UNITY_2021
-define:UNITY_5_3_OR_NEWER
-define:UNITY_5_4_OR_NEWER
-define:UNITY_5_5_OR_NEWER
-define:UNITY_5_6_OR_NEWER
-define:UNITY_2017_1_OR_NEWER
-define:UNITY_2017_2_OR_NEWER
-define:UNITY_2017_3_OR_NEWER
-define:UNITY_2017_4_OR_NEWER
-define:UNITY_2018_1_OR_NEWER
-define:UNITY_2018_2_OR_NEWER
-define:UNITY_2018_3_OR_NEWER
-define:UNITY_2018_4_OR_NEWER
-define:UNITY_2019_1_OR_NEWER
-define:UNITY_2019_2_OR_NEWER
-define:UNITY_2019_3_OR_NEWER
-define:UNITY_2019_4_OR_NEWER
-define:UNITY_2020_1_OR_NEWER
-define:UNITY_2020_2_OR_NEWER
-define:UNITY_2020_3_OR_NEWER
-define:UNITY_2021_1_OR_NEWER
-define:PLATFORM_ARCH_64
-define:UNITY_64
-define:UNITY_INCLUDE_TESTS
-define:USE_SEARCH_ENGINE_API
-define:USE_QUICK_SEARCH_MODULE
-define:SCENE_TEMPLATE_MODULE
-define:ENABLE_AR
-define:ENABLE_AUDIO
-define:ENABLE_CACHING
-define:ENABLE_CLOTH
-define:ENABLE_EVENT_QUEUE
-define:ENABLE_MICROPHONE
-define:ENABLE_MULTIPLE_DISPLAYS
-define:ENABLE_PHYSICS
-define:ENABLE_TEXTURE_STREAMING
-define:ENABLE_VIRTUALTEXTURING
-define:ENABLE_UNET
-define:ENABLE_LZMA
-define:ENABLE_UNITYEVENTS
-define:ENABLE_VR
-define:ENABLE_WEBCAM
-define:ENABLE_UNITYWEBREQUEST
-define:ENABLE_WWW
-define:ENABLE_CLOUD_SERVICES
-define:ENABLE_CLOUD_SERVICES_COLLAB
-define:ENABLE_CLOUD_SERVICES_COLLAB_SOFTLOCKS
-define:ENABLE_CLOUD_SERVICES_ADS
-define:ENABLE_CLOUD_SERVICES_USE_WEBREQUEST
-define:ENABLE_CLOUD_SERVICES_CRASH_REPORTING
-define:ENABLE_CLOUD_SERVICES_PURCHASING
-define:ENABLE_CLOUD_SERVICES_ANALYTICS
-define:ENABLE_CLOUD_SERVICES_UNET
-define:ENABLE_CLOUD_SERVICES_BUILD
-define:ENABLE_CLOUD_LICENSE
-define:ENABLE_EDITOR_HUB_LICENSE
-define:ENABLE_WEBSOCKET_CLIENT
-define:ENABLE_DIRECTOR_AUDIO
-define:ENABLE_DIRECTOR_TEXTURE
-define:ENABLE_MANAGED_JOBS
-define:ENABLE_MANAGED_TRANSFORM_JOBS
-define:ENABLE_MANAGED_ANIMATION_JOBS
-define:ENABLE_MANAGED_AUDIO_JOBS
-define:INCLUDE_DYNAMIC_GI
-define:ENABLE_MONO_BDWGC
-define:ENABLE_SCRIPTING_GC_WBARRIERS
-define:PLATFORM_SUPPORTS_MONO
-define:RENDER_SOFTWARE_CURSOR
-define:ENABLE_VIDEO
-define:PLATFORM_STANDALONE
-define:PLATFORM_STANDALONE_WIN
-define:UNITY_STANDALONE_WIN
-define:UNITY_STANDALONE
-define:ENABLE_RUNTIME_GI
-define:ENABLE_MOVIES
-define:ENABLE_NETWORK
-define:ENABLE_CRUNCH_TEXTURE_COMPRESSION
-define:ENABLE_OUT_OF_PROCESS_CRASH_HANDLER
-define:ENABLE_CLUSTER_SYNC
-define:ENABLE_CLUSTERINPUT
-define:PLATFORM_UPDATES_TIME_OUTSIDE_OF_PLAYER_LOOP
-define:GFXDEVICE_WAITFOREVENT_MESSAGEPUMP
-define:ENABLE_WEBSOCKET_HOST
-define:ENABLE_MONO
-define:NET_4_6
-define:ENABLE_PROFILER
-define:DEBUG
-define:TRACE
-define:UNITY_ASSERTIONS
-define:UNITY_EDITOR
-define:UNITY_EDITOR_64
-define:UNITY_EDITOR_WIN
-define:ENABLE_UNITY_COLLECTIONS_CHECKS
-define:ENABLE_BURST_AOT
-define:UNITY_TEAM_LICENSE
-define:ENABLE_CUSTOM_RENDER_TEXTURE
-define:ENABLE_DIRECTOR
-define:ENABLE_LOCALIZATION
-define:ENABLE_SPRITES
-define:ENABLE_TERRAIN
-define:ENABLE_TILEMAP
-define:ENABLE_TIMELINE
-define:ENABLE_LEGACY_INPUT_MANAGER
-define:UNITY_POST_PROCESSING_STACK_V2
-define:VRTK_VERSION_3_3_0
-define:VRTK_VERSION_3_3_0_OR_NEWER
-define:VRTK_VERSION_3_1_0_OR_NEWER
-define:VRTK_VERSION_3_2_0_OR_NEWER
-define:VRTK_VERSION_3_2_1_OR_NEWER
-define:UNISTORM_PRESENT
-define:UNITY_CCU
-define:CURVEDUI_TMP
-define:CURVEDUI_OCULUSVR
-define:CT_RADIO
-define:CT_UI
-define:CT_RADIO_ONRADIO
-define:CT_PROC
-define:CSHARP_7_OR_LATER
-define:CSHARP_7_3_OR_NEWER
-r:"Assets/Plugins/crosstales/Common/Libraries/NAudio/CTNAudio.dll"
-r:"Assets/Plugins/crosstales/Common/Libraries/UDE/Mono/I18N.CJK.dll"
-r:"Assets/Plugins/crosstales/Common/Libraries/UDE/Mono/I18N.dll"
-r:"Assets/Plugins/crosstales/Common/Libraries/UDE/Mono/I18N.MidEast.dll"
-r:"Assets/Plugins/crosstales/Common/Libraries/UDE/Mono/I18N.Other.dll"
-r:"Assets/Plugins/crosstales/Common/Libraries/UDE/Mono/I18N.Rare.dll"
-r:"Assets/Plugins/crosstales/Common/Libraries/UDE/Mono/I18N.West.dll"
-r:"C:/Program Files/Unity/Hub/Editor/2021.1.23f1/Editor/Data/Managed/UnityEngine/UnityEditor.CoreModule.dll"
-r:"C:/Program Files/Unity/Hub/Editor/2021.1.23f1/Editor/Data/Managed/UnityEngine/UnityEditor.DeviceSimulatorModule.dll"
-r:"C:/Program Files/Unity/Hub/Editor/2021.1.23f1/Editor/Data/Managed/UnityEngine/UnityEditor.dll"
-r:"C:/Program Files/Unity/Hub/Editor/2021.1.23f1/Editor/Data/Managed/UnityEngine/UnityEditor.GraphViewModule.dll"
-r:"C:/Program Files/Unity/Hub/Editor/2021.1.23f1/Editor/Data/Managed/UnityEngine/UnityEditor.PackageManagerUIModule.dll"
-r:"C:/Program Files/Unity/Hub/Editor/2021.1.23f1/Editor/Data/Managed/UnityEngine/UnityEditor.QuickSearchModule.dll"
-r:"C:/Program Files/Unity/Hub/Editor/2021.1.23f1/Editor/Data/Managed/UnityEngine/UnityEditor.SceneTemplateModule.dll"
-r:"C:/Program Files/Unity/Hub/Editor/2021.1.23f1/Editor/Data/Managed/UnityEngine/UnityEditor.UIBuilderModule.dll"
-r:"C:/Program Files/Unity/Hub/Editor/2021.1.23f1/Editor/Data/Managed/UnityEngine/UnityEditor.UIElementsModule.dll"
-r:"C:/Program Files/Unity/Hub/Editor/2021.1.23f1/Editor/Data/Managed/UnityEngine/UnityEditor.UIElementsSamplesModule.dll"
-r:"C:/Program Files/Unity/Hub/Editor/2021.1.23f1/Editor/Data/Managed/UnityEngine/UnityEditor.UIServiceModule.dll"
-r:"C:/Program Files/Unity/Hub/Editor/2021.1.23f1/Editor/Data/Managed/UnityEngine/UnityEditor.UnityConnectModule.dll"
-r:"C:/Program Files/Unity/Hub/Editor/2021.1.23f1/Editor/Data/Managed/UnityEngine/UnityEngine.AccessibilityModule.dll"
-r:"C:/Program Files/Unity/Hub/Editor/2021.1.23f1/Editor/Data/Managed/UnityEngine/UnityEngine.AIModule.dll"
-r:"C:/Program Files/Unity/Hub/Editor/2021.1.23f1/Editor/Data/Managed/UnityEngine/UnityEngine.AndroidJNIModule.dll"
-r:"C:/Program Files/Unity/Hub/Editor/2021.1.23f1/Editor/Data/Managed/UnityEngine/UnityEngine.AnimationModule.dll"
-r:"C:/Program Files/Unity/Hub/Editor/2021.1.23f1/Editor/Data/Managed/UnityEngine/UnityEngine.ARModule.dll"
-r:"C:/Program Files/Unity/Hub/Editor/2021.1.23f1/Editor/Data/Managed/UnityEngine/UnityEngine.AssetBundleModule.dll"
-r:"C:/Program Files/Unity/Hub/Editor/2021.1.23f1/Editor/Data/Managed/UnityEngine/UnityEngine.AudioModule.dll"
-r:"C:/Program Files/Unity/Hub/Editor/2021.1.23f1/Editor/Data/Managed/UnityEngine/UnityEngine.ClothModule.dll"
-r:"C:/Program Files/Unity/Hub/Editor/2021.1.23f1/Editor/Data/Managed/UnityEngine/UnityEngine.ClusterInputModule.dll"
-r:"C:/Program Files/Unity/Hub/Editor/2021.1.23f1/Editor/Data/Managed/UnityEngine/UnityEngine.ClusterRendererModule.dll"
-r:"C:/Program Files/Unity/Hub/Editor/2021.1.23f1/Editor/Data/Managed/UnityEngine/UnityEngine.CoreModule.dll"
-r:"C:/Program Files/Unity/Hub/Editor/2021.1.23f1/Editor/Data/Managed/UnityEngine/UnityEngine.CrashReportingModule.dll"
-r:"C:/Program Files/Unity/Hub/Editor/2021.1.23f1/Editor/Data/Managed/UnityEngine/UnityEngine.DirectorModule.dll"
-r:"C:/Program Files/Unity/Hub/Editor/2021.1.23f1/Editor/Data/Managed/UnityEngine/UnityEngine.dll"
-r:"C:/Program Files/Unity/Hub/Editor/2021.1.23f1/Editor/Data/Managed/UnityEngine/UnityEngine.DSPGraphModule.dll"
-r:"C:/Program Files/Unity/Hub/Editor/2021.1.23f1/Editor/Data/Managed/UnityEngine/UnityEngine.GameCenterModule.dll"
-r:"C:/Program Files/Unity/Hub/Editor/2021.1.23f1/Editor/Data/Managed/UnityEngine/UnityEngine.GIModule.dll"
-r:"C:/Program Files/Unity/Hub/Editor/2021.1.23f1/Editor/Data/Managed/UnityEngine/UnityEngine.GridModule.dll"
-r:"C:/Program Files/Unity/Hub/Editor/2021.1.23f1/Editor/Data/Managed/UnityEngine/UnityEngine.HotReloadModule.dll"
-r:"C:/Program Files/Unity/Hub/Editor/2021.1.23f1/Editor/Data/Managed/UnityEngine/UnityEngine.ImageConversionModule.dll"
-r:"C:/Program Files/Unity/Hub/Editor/2021.1.23f1/Editor/Data/Managed/UnityEngine/UnityEngine.IMGUIModule.dll"
-r:"C:/Program Files/Unity/Hub/Editor/2021.1.23f1/Editor/Data/Managed/UnityEngine/UnityEngine.InputLegacyModule.dll"
-r:"C:/Program Files/Unity/Hub/Editor/2021.1.23f1/Editor/Data/Managed/UnityEngine/UnityEngine.InputModule.dll"
-r:"C:/Program Files/Unity/Hub/Editor/2021.1.23f1/Editor/Data/Managed/UnityEngine/UnityEngine.JSONSerializeModule.dll"
-r:"C:/Program Files/Unity/Hub/Editor/2021.1.23f1/Editor/Data/Managed/UnityEngine/UnityEngine.LocalizationModule.dll"
-r:"C:/Program Files/Unity/Hub/Editor/2021.1.23f1/Editor/Data/Managed/UnityEngine/UnityEngine.ParticleSystemModule.dll"
-r:"C:/Program Files/Unity/Hub/Editor/2021.1.23f1/Editor/Data/Managed/UnityEngine/UnityEngine.PerformanceReportingModule.dll"
-r:"C:/Program Files/Unity/Hub/Editor/2021.1.23f1/Editor/Data/Managed/UnityEngine/UnityEngine.Physics2DModule.dll"
-r:"C:/Program Files/Unity/Hub/Editor/2021.1.23f1/Editor/Data/Managed/UnityEngine/UnityEngine.PhysicsModule.dll"
-r:"C:/Program Files/Unity/Hub/Editor/2021.1.23f1/Editor/Data/Managed/UnityEngine/UnityEngine.ProfilerModule.dll"
-r:"C:/Program Files/Unity/Hub/Editor/2021.1.23f1/Editor/Data/Managed/UnityEngine/UnityEngine.RuntimeInitializeOnLoadManagerInitializerModule.dll"
-r:"C:/Program Files/Unity/Hub/Editor/2021.1.23f1/Editor/Data/Managed/UnityEngine/UnityEngine.ScreenCaptureModule.dll"
-r:"C:/Program Files/Unity/Hub/Editor/2021.1.23f1/Editor/Data/Managed/UnityEngine/UnityEngine.SharedInternalsModule.dll"
-r:"C:/Program Files/Unity/Hub/Editor/2021.1.23f1/Editor/Data/Managed/UnityEngine/UnityEngine.SpriteMaskModule.dll"
-r:"C:/Program Files/Unity/Hub/Editor/2021.1.23f1/Editor/Data/Managed/UnityEngine/UnityEngine.SpriteShapeModule.dll"
-r:"C:/Program Files/Unity/Hub/Editor/2021.1.23f1/Editor/Data/Managed/UnityEngine/UnityEngine.StreamingModule.dll"
-r:"C:/Program Files/Unity/Hub/Editor/2021.1.23f1/Editor/Data/Managed/UnityEngine/UnityEngine.SubstanceModule.dll"
-r:"C:/Program Files/Unity/Hub/Editor/2021.1.23f1/Editor/Data/Managed/UnityEngine/UnityEngine.SubsystemsModule.dll"
-r:"C:/Program Files/Unity/Hub/Editor/2021.1.23f1/Editor/Data/Managed/UnityEngine/UnityEngine.TerrainModule.dll"
-r:"C:/Program Files/Unity/Hub/Editor/2021.1.23f1/Editor/Data/Managed/UnityEngine/UnityEngine.TerrainPhysicsModule.dll"
-r:"C:/Program Files/Unity/Hub/Editor/2021.1.23f1/Editor/Data/Managed/UnityEngine/UnityEngine.TextCoreModule.dll"
-r:"C:/Program Files/Unity/Hub/Editor/2021.1.23f1/Editor/Data/Managed/UnityEngine/UnityEngine.TextRenderingModule.dll"
-r:"C:/Program Files/Unity/Hub/Editor/2021.1.23f1/Editor/Data/Managed/UnityEngine/UnityEngine.TilemapModule.dll"
-r:"C:/Program Files/Unity/Hub/Editor/2021.1.23f1/Editor/Data/Managed/UnityEngine/UnityEngine.TLSModule.dll"
-r:"C:/Program Files/Unity/Hub/Editor/2021.1.23f1/Editor/Data/Managed/UnityEngine/UnityEngine.UIElementsModule.dll"
-r:"C:/Program Files/Unity/Hub/Editor/2021.1.23f1/Editor/Data/Managed/UnityEngine/UnityEngine.UIElementsNativeModule.dll"
-r:"C:/Program Files/Unity/Hub/Editor/2021.1.23f1/Editor/Data/Managed/UnityEngine/UnityEngine.UIModule.dll"
-r:"C:/Program Files/Unity/Hub/Editor/2021.1.23f1/Editor/Data/Managed/UnityEngine/UnityEngine.UmbraModule.dll"
-r:"C:/Program Files/Unity/Hub/Editor/2021.1.23f1/Editor/Data/Managed/UnityEngine/UnityEngine.UNETModule.dll"
-r:"C:/Program Files/Unity/Hub/Editor/2021.1.23f1/Editor/Data/Managed/UnityEngine/UnityEngine.UnityAnalyticsModule.dll"
-r:"C:/Program Files/Unity/Hub/Editor/2021.1.23f1/Editor/Data/Managed/UnityEngine/UnityEngine.UnityConnectModule.dll"
-r:"C:/Program Files/Unity/Hub/Editor/2021.1.23f1/Editor/Data/Managed/UnityEngine/UnityEngine.UnityCurlModule.dll"
-r:"C:/Program Files/Unity/Hub/Editor/2021.1.23f1/Editor/Data/Managed/UnityEngine/UnityEngine.UnityTestProtocolModule.dll"
-r:"C:/Program Files/Unity/Hub/Editor/2021.1.23f1/Editor/Data/Managed/UnityEngine/UnityEngine.UnityWebRequestAssetBundleModule.dll"
-r:"C:/Program Files/Unity/Hub/Editor/2021.1.23f1/Editor/Data/Managed/UnityEngine/UnityEngine.UnityWebRequestAudioModule.dll"
-r:"C:/Program Files/Unity/Hub/Editor/2021.1.23f1/Editor/Data/Managed/UnityEngine/UnityEngine.UnityWebRequestModule.dll"
-r:"C:/Program Files/Unity/Hub/Editor/2021.1.23f1/Editor/Data/Managed/UnityEngine/UnityEngine.UnityWebRequestTextureModule.dll"
-r:"C:/Program Files/Unity/Hub/Editor/2021.1.23f1/Editor/Data/Managed/UnityEngine/UnityEngine.UnityWebRequestWWWModule.dll"
-r:"C:/Program Files/Unity/Hub/Editor/2021.1.23f1/Editor/Data/Managed/UnityEngine/UnityEngine.VehiclesModule.dll"
-r:"C:/Program Files/Unity/Hub/Editor/2021.1.23f1/Editor/Data/Managed/UnityEngine/UnityEngine.VFXModule.dll"
-r:"C:/Program Files/Unity/Hub/Editor/2021.1.23f1/Editor/Data/Managed/UnityEngine/UnityEngine.VideoModule.dll"
-r:"C:/Program Files/Unity/Hub/Editor/2021.1.23f1/Editor/Data/Managed/UnityEngine/UnityEngine.VirtualTexturingModule.dll"
-r:"C:/Program Files/Unity/Hub/Editor/2021.1.23f1/Editor/Data/Managed/UnityEngine/UnityEngine.VRModule.dll"
-r:"C:/Program Files/Unity/Hub/Editor/2021.1.23f1/Editor/Data/Managed/UnityEngine/UnityEngine.WindModule.dll"
-r:"C:/Program Files/Unity/Hub/Editor/2021.1.23f1/Editor/Data/Managed/UnityEngine/UnityEngine.XRModule.dll"
-r:"C:/Program Files/Unity/Hub/Editor/2021.1.23f1/Editor/Data/MonoBleedingEdge/lib/mono/4.7.1-api/Facades/Microsoft.Win32.Primitives.dll"
-r:"C:/Program Files/Unity/Hub/Editor/2021.1.23f1/Editor/Data/MonoBleedingEdge/lib/mono/4.7.1-api/Facades/netstandard.dll"
-r:"C:/Program Files/Unity/Hub/Editor/2021.1.23f1/Editor/Data/MonoBleedingEdge/lib/mono/4.7.1-api/Facades/System.AppContext.dll"
-r:"C:/Program Files/Unity/Hub/Editor/2021.1.23f1/Editor/Data/MonoBleedingEdge/lib/mono/4.7.1-api/Facades/System.Collections.Concurrent.dll"
-r:"C:/Program Files/Unity/Hub/Editor/2021.1.23f1/Editor/Data/MonoBleedingEdge/lib/mono/4.7.1-api/Facades/System.Collections.dll"
-r:"C:/Program Files/Unity/Hub/Editor/2021.1.23f1/Editor/Data/MonoBleedingEdge/lib/mono/4.7.1-api/Facades/System.Collections.NonGeneric.dll"
-r:"C:/Program Files/Unity/Hub/Editor/2021.1.23f1/Editor/Data/MonoBleedingEdge/lib/mono/4.7.1-api/Facades/System.Collections.Specialized.dll"
-r:"C:/Program Files/Unity/Hub/Editor/2021.1.23f1/Editor/Data/MonoBleedingEdge/lib/mono/4.7.1-api/Facades/System.ComponentModel.Annotations.dll"
-r:"C:/Program Files/Unity/Hub/Editor/2021.1.23f1/Editor/Data/MonoBleedingEdge/lib/mono/4.7.1-api/Facades/System.ComponentModel.dll"
-r:"C:/Program Files/Unity/Hub/Editor/2021.1.23f1/Editor/Data/MonoBleedingEdge/lib/mono/4.7.1-api/Facades/System.ComponentModel.EventBasedAsync.dll"
-r:"C:/Program Files/Unity/Hub/Editor/2021.1.23f1/Editor/Data/MonoBleedingEdge/lib/mono/4.7.1-api/Facades/System.ComponentModel.Primitives.dll"
-r:"C:/Program Files/Unity/Hub/Editor/2021.1.23f1/Editor/Data/MonoBleedingEdge/lib/mono/4.7.1-api/Facades/System.ComponentModel.TypeConverter.dll"
-r:"C:/Program Files/Unity/Hub/Editor/2021.1.23f1/Editor/Data/MonoBleedingEdge/lib/mono/4.7.1-api/Facades/System.Console.dll"
-r:"C:/Program Files/Unity/Hub/Editor/2021.1.23f1/Editor/Data/MonoBleedingEdge/lib/mono/4.7.1-api/Facades/System.Data.Common.dll"
-r:"C:/Program Files/Unity/Hub/Editor/2021.1.23f1/Editor/Data/MonoBleedingEdge/lib/mono/4.7.1-api/Facades/System.Diagnostics.Contracts.dll"
-r:"C:/Program Files/Unity/Hub/Editor/2021.1.23f1/Editor/Data/MonoBleedingEdge/lib/mono/4.7.1-api/Facades/System.Diagnostics.Debug.dll"
-r:"C:/Program Files/Unity/Hub/Editor/2021.1.23f1/Editor/Data/MonoBleedingEdge/lib/mono/4.7.1-api/Facades/System.Diagnostics.FileVersionInfo.dll"
-r:"C:/Program Files/Unity/Hub/Editor/2021.1.23f1/Editor/Data/MonoBleedingEdge/lib/mono/4.7.1-api/Facades/System.Diagnostics.Process.dll"
-r:"C:/Program Files/Unity/Hub/Editor/2021.1.23f1/Editor/Data/MonoBleedingEdge/lib/mono/4.7.1-api/Facades/System.Diagnostics.StackTrace.dll"
-r:"C:/Program Files/Unity/Hub/Editor/2021.1.23f1/Editor/Data/MonoBleedingEdge/lib/mono/4.7.1-api/Facades/System.Diagnostics.TextWriterTraceListener.dll"
-r:"C:/Program Files/Unity/Hub/Editor/2021.1.23f1/Editor/Data/MonoBleedingEdge/lib/mono/4.7.1-api/Facades/System.Diagnostics.Tools.dll"
-r:"C:/Program Files/Unity/Hub/Editor/2021.1.23f1/Editor/Data/MonoBleedingEdge/lib/mono/4.7.1-api/Facades/System.Diagnostics.TraceSource.dll"
-r:"C:/Program Files/Unity/Hub/Editor/2021.1.23f1/Editor/Data/MonoBleedingEdge/lib/mono/4.7.1-api/Facades/System.Drawing.Primitives.dll"
-r:"C:/Program Files/Unity/Hub/Editor/2021.1.23f1/Editor/Data/MonoBleedingEdge/lib/mono/4.7.1-api/Facades/System.Dynamic.Runtime.dll"
-r:"C:/Program Files/Unity/Hub/Editor/2021.1.23f1/Editor/Data/MonoBleedingEdge/lib/mono/4.7.1-api/Facades/System.Globalization.Calendars.dll"
-r:"C:/Program Files/Unity/Hub/Editor/2021.1.23f1/Editor/Data/MonoBleedingEdge/lib/mono/4.7.1-api/Facades/System.Globalization.dll"
-r:"C:/Program Files/Unity/Hub/Editor/2021.1.23f1/Editor/Data/MonoBleedingEdge/lib/mono/4.7.1-api/Facades/System.Globalization.Extensions.dll"
-r:"C:/Program Files/Unity/Hub/Editor/2021.1.23f1/Editor/Data/MonoBleedingEdge/lib/mono/4.7.1-api/Facades/System.IO.Compression.ZipFile.dll"
-r:"C:/Program Files/Unity/Hub/Editor/2021.1.23f1/Editor/Data/MonoBleedingEdge/lib/mono/4.7.1-api/Facades/System.IO.dll"
-r:"C:/Program Files/Unity/Hub/Editor/2021.1.23f1/Editor/Data/MonoBleedingEdge/lib/mono/4.7.1-api/Facades/System.IO.FileSystem.dll"
-r:"C:/Program Files/Unity/Hub/Editor/2021.1.23f1/Editor/Data/MonoBleedingEdge/lib/mono/4.7.1-api/Facades/System.IO.FileSystem.DriveInfo.dll"
-r:"C:/Program Files/Unity/Hub/Editor/2021.1.23f1/Editor/Data/MonoBleedingEdge/lib/mono/4.7.1-api/Facades/System.IO.FileSystem.Primitives.dll"
-r:"C:/Program Files/Unity/Hub/Editor/2021.1.23f1/Editor/Data/MonoBleedingEdge/lib/mono/4.7.1-api/Facades/System.IO.FileSystem.Watcher.dll"
-r:"C:/Program Files/Unity/Hub/Editor/2021.1.23f1/Editor/Data/MonoBleedingEdge/lib/mono/4.7.1-api/Facades/System.IO.IsolatedStorage.dll"
-r:"C:/Program Files/Unity/Hub/Editor/2021.1.23f1/Editor/Data/MonoBleedingEdge/lib/mono/4.7.1-api/Facades/System.IO.MemoryMappedFiles.dll"
-r:"C:/Program Files/Unity/Hub/Editor/2021.1.23f1/Editor/Data/MonoBleedingEdge/lib/mono/4.7.1-api/Facades/System.IO.Pipes.dll"
-r:"C:/Program Files/Unity/Hub/Editor/2021.1.23f1/Editor/Data/MonoBleedingEdge/lib/mono/4.7.1-api/Facades/System.IO.UnmanagedMemoryStream.dll"
-r:"C:/Program Files/Unity/Hub/Editor/2021.1.23f1/Editor/Data/MonoBleedingEdge/lib/mono/4.7.1-api/Facades/System.Linq.dll"
-r:"C:/Program Files/Unity/Hub/Editor/2021.1.23f1/Editor/Data/MonoBleedingEdge/lib/mono/4.7.1-api/Facades/System.Linq.Expressions.dll"
-r:"C:/Program Files/Unity/Hub/Editor/2021.1.23f1/Editor/Data/MonoBleedingEdge/lib/mono/4.7.1-api/Facades/System.Linq.Parallel.dll"
-r:"C:/Program Files/Unity/Hub/Editor/2021.1.23f1/Editor/Data/MonoBleedingEdge/lib/mono/4.7.1-api/Facades/System.Linq.Queryable.dll"
-r:"C:/Program Files/Unity/Hub/Editor/2021.1.23f1/Editor/Data/MonoBleedingEdge/lib/mono/4.7.1-api/Facades/System.Net.Http.Rtc.dll"
-r:"C:/Program Files/Unity/Hub/Editor/2021.1.23f1/Editor/Data/MonoBleedingEdge/lib/mono/4.7.1-api/Facades/System.Net.NameResolution.dll"
-r:"C:/Program Files/Unity/Hub/Editor/2021.1.23f1/Editor/Data/MonoBleedingEdge/lib/mono/4.7.1-api/Facades/System.Net.NetworkInformation.dll"
-r:"C:/Program Files/Unity/Hub/Editor/2021.1.23f1/Editor/Data/MonoBleedingEdge/lib/mono/4.7.1-api/Facades/System.Net.Ping.dll"
-r:"C:/Program Files/Unity/Hub/Editor/2021.1.23f1/Editor/Data/MonoBleedingEdge/lib/mono/4.7.1-api/Facades/System.Net.Primitives.dll"
-r:"C:/Program Files/Unity/Hub/Editor/2021.1.23f1/Editor/Data/MonoBleedingEdge/lib/mono/4.7.1-api/Facades/System.Net.Requests.dll"
-r:"C:/Program Files/Unity/Hub/Editor/2021.1.23f1/Editor/Data/MonoBleedingEdge/lib/mono/4.7.1-api/Facades/System.Net.Security.dll"
-r:"C:/Program Files/Unity/Hub/Editor/2021.1.23f1/Editor/Data/MonoBleedingEdge/lib/mono/4.7.1-api/Facades/System.Net.Sockets.dll"
-r:"C:/Program Files/Unity/Hub/Editor/2021.1.23f1/Editor/Data/MonoBleedingEdge/lib/mono/4.7.1-api/Facades/System.Net.WebHeaderCollection.dll"
-r:"C:/Program Files/Unity/Hub/Editor/2021.1.23f1/Editor/Data/MonoBleedingEdge/lib/mono/4.7.1-api/Facades/System.Net.WebSockets.Client.dll"
-r:"C:/Program Files/Unity/Hub/Editor/2021.1.23f1/Editor/Data/MonoBleedingEdge/lib/mono/4.7.1-api/Facades/System.Net.WebSockets.dll"
-r:"C:/Program Files/Unity/Hub/Editor/2021.1.23f1/Editor/Data/MonoBleedingEdge/lib/mono/4.7.1-api/Facades/System.ObjectModel.dll"
-r:"C:/Program Files/Unity/Hub/Editor/2021.1.23f1/Editor/Data/MonoBleedingEdge/lib/mono/4.7.1-api/Facades/System.Reflection.dll"
-r:"C:/Program Files/Unity/Hub/Editor/2021.1.23f1/Editor/Data/MonoBleedingEdge/lib/mono/4.7.1-api/Facades/System.Reflection.Emit.dll"
-r:"C:/Program Files/Unity/Hub/Editor/2021.1.23f1/Editor/Data/MonoBleedingEdge/lib/mono/4.7.1-api/Facades/System.Reflection.Emit.ILGeneration.dll"
-r:"C:/Program Files/Unity/Hub/Editor/2021.1.23f1/Editor/Data/MonoBleedingEdge/lib/mono/4.7.1-api/Facades/System.Reflection.Emit.Lightweight.dll"
-r:"C:/Program Files/Unity/Hub/Editor/2021.1.23f1/Editor/Data/MonoBleedingEdge/lib/mono/4.7.1-api/Facades/System.Reflection.Extensions.dll"
-r:"C:/Program Files/Unity/Hub/Editor/2021.1.23f1/Editor/Data/MonoBleedingEdge/lib/mono/4.7.1-api/Facades/System.Reflection.Primitives.dll"
-r:"C:/Program Files/Unity/Hub/Editor/2021.1.23f1/Editor/Data/MonoBleedingEdge/lib/mono/4.7.1-api/Facades/System.Resources.Reader.dll"
-r:"C:/Program Files/Unity/Hub/Editor/2021.1.23f1/Editor/Data/MonoBleedingEdge/lib/mono/4.7.1-api/Facades/System.Resources.ResourceManager.dll"
-r:"C:/Program Files/Unity/Hub/Editor/2021.1.23f1/Editor/Data/MonoBleedingEdge/lib/mono/4.7.1-api/Facades/System.Resources.Writer.dll"
-r:"C:/Program Files/Unity/Hub/Editor/2021.1.23f1/Editor/Data/MonoBleedingEdge/lib/mono/4.7.1-api/Facades/System.Runtime.CompilerServices.VisualC.dll"
-r:"C:/Program Files/Unity/Hub/Editor/2021.1.23f1/Editor/Data/MonoBleedingEdge/lib/mono/4.7.1-api/Facades/System.Runtime.dll"
-r:"C:/Program Files/Unity/Hub/Editor/2021.1.23f1/Editor/Data/MonoBleedingEdge/lib/mono/4.7.1-api/Facades/System.Runtime.Extensions.dll"
-r:"C:/Program Files/Unity/Hub/Editor/2021.1.23f1/Editor/Data/MonoBleedingEdge/lib/mono/4.7.1-api/Facades/System.Runtime.Handles.dll"
-r:"C:/Program Files/Unity/Hub/Editor/2021.1.23f1/Editor/Data/MonoBleedingEdge/lib/mono/4.7.1-api/Facades/System.Runtime.InteropServices.dll"
-r:"C:/Program Files/Unity/Hub/Editor/2021.1.23f1/Editor/Data/MonoBleedingEdge/lib/mono/4.7.1-api/Facades/System.Runtime.InteropServices.RuntimeInformation.dll"
-r:"C:/Program Files/Unity/Hub/Editor/2021.1.23f1/Editor/Data/MonoBleedingEdge/lib/mono/4.7.1-api/Facades/System.Runtime.InteropServices.WindowsRuntime.dll"
-r:"C:/Program Files/Unity/Hub/Editor/2021.1.23f1/Editor/Data/MonoBleedingEdge/lib/mono/4.7.1-api/Facades/System.Runtime.Numerics.dll"
-r:"C:/Program Files/Unity/Hub/Editor/2021.1.23f1/Editor/Data/MonoBleedingEdge/lib/mono/4.7.1-api/Facades/System.Runtime.Serialization.Formatters.dll"
-r:"C:/Program Files/Unity/Hub/Editor/2021.1.23f1/Editor/Data/MonoBleedingEdge/lib/mono/4.7.1-api/Facades/System.Runtime.Serialization.Json.dll"
-r:"C:/Program Files/Unity/Hub/Editor/2021.1.23f1/Editor/Data/MonoBleedingEdge/lib/mono/4.7.1-api/Facades/System.Runtime.Serialization.Primitives.dll"
-r:"C:/Program Files/Unity/Hub/Editor/2021.1.23f1/Editor/Data/MonoBleedingEdge/lib/mono/4.7.1-api/Facades/System.Runtime.Serialization.Xml.dll"
-r:"C:/Program Files/Unity/Hub/Editor/2021.1.23f1/Editor/Data/MonoBleedingEdge/lib/mono/4.7.1-api/Facades/System.Security.Claims.dll"
-r:"C:/Program Files/Unity/Hub/Editor/2021.1.23f1/Editor/Data/MonoBleedingEdge/lib/mono/4.7.1-api/Facades/System.Security.Cryptography.Algorithms.dll"
-r:"C:/Program Files/Unity/Hub/Editor/2021.1.23f1/Editor/Data/MonoBleedingEdge/lib/mono/4.7.1-api/Facades/System.Security.Cryptography.Csp.dll"
-r:"C:/Program Files/Unity/Hub/Editor/2021.1.23f1/Editor/Data/MonoBleedingEdge/lib/mono/4.7.1-api/Facades/System.Security.Cryptography.Encoding.dll"
-r:"C:/Program Files/Unity/Hub/Editor/2021.1.23f1/Editor/Data/MonoBleedingEdge/lib/mono/4.7.1-api/Facades/System.Security.Cryptography.Primitives.dll"
-r:"C:/Program Files/Unity/Hub/Editor/2021.1.23f1/Editor/Data/MonoBleedingEdge/lib/mono/4.7.1-api/Facades/System.Security.Cryptography.X509Certificates.dll"
-r:"C:/Program Files/Unity/Hub/Editor/2021.1.23f1/Editor/Data/MonoBleedingEdge/lib/mono/4.7.1-api/Facades/System.Security.Principal.dll"
-r:"C:/Program Files/Unity/Hub/Editor/2021.1.23f1/Editor/Data/MonoBleedingEdge/lib/mono/4.7.1-api/Facades/System.Security.SecureString.dll"
-r:"C:/Program Files/Unity/Hub/Editor/2021.1.23f1/Editor/Data/MonoBleedingEdge/lib/mono/4.7.1-api/Facades/System.ServiceModel.Duplex.dll"
-r:"C:/Program Files/Unity/Hub/Editor/2021.1.23f1/Editor/Data/MonoBleedingEdge/lib/mono/4.7.1-api/Facades/System.ServiceModel.Http.dll"
-r:"C:/Program Files/Unity/Hub/Editor/2021.1.23f1/Editor/Data/MonoBleedingEdge/lib/mono/4.7.1-api/Facades/System.ServiceModel.NetTcp.dll"
-r:"C:/Program Files/Unity/Hub/Editor/2021.1.23f1/Editor/Data/MonoBleedingEdge/lib/mono/4.7.1-api/Facades/System.ServiceModel.Primitives.dll"
-r:"C:/Program Files/Unity/Hub/Editor/2021.1.23f1/Editor/Data/MonoBleedingEdge/lib/mono/4.7.1-api/Facades/System.ServiceModel.Security.dll"
-r:"C:/Program Files/Unity/Hub/Editor/2021.1.23f1/Editor/Data/MonoBleedingEdge/lib/mono/4.7.1-api/Facades/System.Text.Encoding.dll"
-r:"C:/Program Files/Unity/Hub/Editor/2021.1.23f1/Editor/Data/MonoBleedingEdge/lib/mono/4.7.1-api/Facades/System.Text.Encoding.Extensions.dll"
-r:"C:/Program Files/Unity/Hub/Editor/2021.1.23f1/Editor/Data/MonoBleedingEdge/lib/mono/4.7.1-api/Facades/System.Text.RegularExpressions.dll"
-r:"C:/Program Files/Unity/Hub/Editor/2021.1.23f1/Editor/Data/MonoBleedingEdge/lib/mono/4.7.1-api/Facades/System.Threading.dll"
-r:"C:/Program Files/Unity/Hub/Editor/2021.1.23f1/Editor/Data/MonoBleedingEdge/lib/mono/4.7.1-api/Facades/System.Threading.Overlapped.dll"
-r:"C:/Program Files/Unity/Hub/Editor/2021.1.23f1/Editor/Data/MonoBleedingEdge/lib/mono/4.7.1-api/Facades/System.Threading.Tasks.dll"
-r:"C:/Program Files/Unity/Hub/Editor/2021.1.23f1/Editor/Data/MonoBleedingEdge/lib/mono/4.7.1-api/Facades/System.Threading.Tasks.Parallel.dll"
-r:"C:/Program Files/Unity/Hub/Editor/2021.1.23f1/Editor/Data/MonoBleedingEdge/lib/mono/4.7.1-api/Facades/System.Threading.Thread.dll"
-r:"C:/Program Files/Unity/Hub/Editor/2021.1.23f1/Editor/Data/MonoBleedingEdge/lib/mono/4.7.1-api/Facades/System.Threading.ThreadPool.dll"
-r:"C:/Program Files/Unity/Hub/Editor/2021.1.23f1/Editor/Data/MonoBleedingEdge/lib/mono/4.7.1-api/Facades/System.Threading.Timer.dll"
-r:"C:/Program Files/Unity/Hub/Editor/2021.1.23f1/Editor/Data/MonoBleedingEdge/lib/mono/4.7.1-api/Facades/System.ValueTuple.dll"
-r:"C:/Program Files/Unity/Hub/Editor/2021.1.23f1/Editor/Data/MonoBleedingEdge/lib/mono/4.7.1-api/Facades/System.Xml.ReaderWriter.dll"
-r:"C:/Program Files/Unity/Hub/Editor/2021.1.23f1/Editor/Data/MonoBleedingEdge/lib/mono/4.7.1-api/Facades/System.Xml.XDocument.dll"
-r:"C:/Program Files/Unity/Hub/Editor/2021.1.23f1/Editor/Data/MonoBleedingEdge/lib/mono/4.7.1-api/Facades/System.Xml.XmlDocument.dll"
-r:"C:/Program Files/Unity/Hub/Editor/2021.1.23f1/Editor/Data/MonoBleedingEdge/lib/mono/4.7.1-api/Facades/System.Xml.XmlSerializer.dll"
-r:"C:/Program Files/Unity/Hub/Editor/2021.1.23f1/Editor/Data/MonoBleedingEdge/lib/mono/4.7.1-api/Facades/System.Xml.XPath.dll"
-r:"C:/Program Files/Unity/Hub/Editor/2021.1.23f1/Editor/Data/MonoBleedingEdge/lib/mono/4.7.1-api/Facades/System.Xml.XPath.XDocument.dll"
-r:"C:/Program Files/Unity/Hub/Editor/2021.1.23f1/Editor/Data/MonoBleedingEdge/lib/mono/4.7.1-api/Microsoft.CSharp.dll"
-r:"C:/Program Files/Unity/Hub/Editor/2021.1.23f1/Editor/Data/MonoBleedingEdge/lib/mono/4.7.1-api/mscorlib.dll"
-r:"C:/Program Files/Unity/Hub/Editor/2021.1.23f1/Editor/Data/MonoBleedingEdge/lib/mono/4.7.1-api/System.Core.dll"
-r:"C:/Program Files/Unity/Hub/Editor/2021.1.23f1/Editor/Data/MonoBleedingEdge/lib/mono/4.7.1-api/System.Data.dll"
-r:"C:/Program Files/Unity/Hub/Editor/2021.1.23f1/Editor/Data/MonoBleedingEdge/lib/mono/4.7.1-api/System.dll"
-r:"C:/Program Files/Unity/Hub/Editor/2021.1.23f1/Editor/Data/MonoBleedingEdge/lib/mono/4.7.1-api/System.IO.Compression.dll"
-r:"C:/Program Files/Unity/Hub/Editor/2021.1.23f1/Editor/Data/MonoBleedingEdge/lib/mono/4.7.1-api/System.Net.Http.dll"
-r:"C:/Program Files/Unity/Hub/Editor/2021.1.23f1/Editor/Data/MonoBleedingEdge/lib/mono/4.7.1-api/System.Numerics.dll"
-r:"C:/Program Files/Unity/Hub/Editor/2021.1.23f1/Editor/Data/MonoBleedingEdge/lib/mono/4.7.1-api/System.Numerics.Vectors.dll"
-r:"C:/Program Files/Unity/Hub/Editor/2021.1.23f1/Editor/Data/MonoBleedingEdge/lib/mono/4.7.1-api/System.Runtime.Serialization.dll"
-r:"C:/Program Files/Unity/Hub/Editor/2021.1.23f1/Editor/Data/MonoBleedingEdge/lib/mono/4.7.1-api/System.Xml.dll"
-r:"C:/Program Files/Unity/Hub/Editor/2021.1.23f1/Editor/Data/MonoBleedingEdge/lib/mono/4.7.1-api/System.Xml.Linq.dll"
-r:"C:/Program Files/Unity/Hub/Editor/2021.1.23f1/Editor/Data/PlaybackEngines/AppleTVSupport/UnityEditor.iOS.Extensions.Xcode.dll"
-r:"C:/Program Files/Unity/Hub/Editor/2021.1.23f1/Editor/Data/PlaybackEngines/iOSSupport/UnityEditor.iOS.Extensions.Common.dll"
-r:"C:/Program Files/Unity/Hub/Editor/2021.1.23f1/Editor/Data/PlaybackEngines/iOSSupport/UnityEditor.iOS.Extensions.Xcode.dll"
-r:"D:/Projects/JANSKY_VR - repo/Library/PackageCache/com.microsoft.maps.unity@0.9.2/Plugins/Microsoft.Maps.Unity.dll"
-r:"Library/Bee/artifacts/1900b0aE.dag/Assembly-CSharp-firstpass.ref.dll"
-r:"Library/Bee/artifacts/1900b0aE.dag/Autodesk.Fbx.Editor.ref.dll"
-r:"Library/Bee/artifacts/1900b0aE.dag/Autodesk.Fbx.ref.dll"
-r:"Library/Bee/artifacts/1900b0aE.dag/Microsoft.Maps.Unity.Editor.ref.dll"
-r:"Library/Bee/artifacts/1900b0aE.dag/Microsoft.Maps.Unity.SupportingScripts.ref.dll"
-r:"Library/Bee/artifacts/1900b0aE.dag/NLayer.ref.dll"
-r:"Library/Bee/artifacts/1900b0aE.dag/NVorbis.ref.dll"
-r:"Library/Bee/artifacts/1900b0aE.dag/Oculus.VR.Editor.ref.dll"
-r:"Library/Bee/artifacts/1900b0aE.dag/Oculus.VR.ref.dll"
-r:"Library/Bee/artifacts/1900b0aE.dag/Oculus.VR.Scripts.Editor.ref.dll"
-r:"Library/Bee/artifacts/1900b0aE.dag/UDE.ref.dll"
-r:"Library/Bee/artifacts/1900b0aE.dag/Unity.2D.Sprite.Editor.ref.dll"
-r:"Library/Bee/artifacts/1900b0aE.dag/Unity.Formats.Fbx.Editor.ref.dll"
-r:"Library/Bee/artifacts/1900b0aE.dag/Unity.Formats.Fbx.Runtime.ref.dll"
-r:"Library/Bee/artifacts/1900b0aE.dag/Unity.Postprocessing.Editor.ref.dll"
-r:"Library/Bee/artifacts/1900b0aE.dag/Unity.Postprocessing.Runtime.ref.dll"
-r:"Library/Bee/artifacts/1900b0aE.dag/Unity.ProBuilder.AddOns.Editor.ref.dll"
-r:"Library/Bee/artifacts/1900b0aE.dag/Unity.ProBuilder.AssetIdRemapUtility.ref.dll"
-r:"Library/Bee/artifacts/1900b0aE.dag/Unity.ProBuilder.Editor.ref.dll"
-r:"Library/Bee/artifacts/1900b0aE.dag/Unity.ProBuilder.ref.dll"
-r:"Library/Bee/artifacts/1900b0aE.dag/Unity.Subsystem.Registration.ref.dll"
-r:"Library/Bee/artifacts/1900b0aE.dag/Unity.TextMeshPro.Editor.ref.dll"
-r:"Library/Bee/artifacts/1900b0aE.dag/Unity.TextMeshPro.ref.dll"
-r:"Library/Bee/artifacts/1900b0aE.dag/Unity.Timeline.Editor.ref.dll"
-r:"Library/Bee/artifacts/1900b0aE.dag/Unity.Timeline.ref.dll"
-r:"Library/Bee/artifacts/1900b0aE.dag/Unity.VisualStudio.Editor.ref.dll"
-r:"Library/Bee/artifacts/1900b0aE.dag/Unity.XR.Management.Editor.ref.dll"
-r:"Library/Bee/artifacts/1900b0aE.dag/Unity.XR.Management.ref.dll"
-r:"Library/Bee/artifacts/1900b0aE.dag/Unity.XR.Oculus.Editor.ref.dll"
-r:"Library/Bee/artifacts/1900b0aE.dag/Unity.XR.Oculus.ref.dll"
-r:"Library/Bee/artifacts/1900b0aE.dag/UnityEditor.SpatialTracking.ref.dll"
-r:"Library/Bee/artifacts/1900b0aE.dag/UnityEditor.UI.ref.dll"
-r:"Library/Bee/artifacts/1900b0aE.dag/UnityEditor.XR.LegacyInputHelpers.ref.dll"
-r:"Library/Bee/artifacts/1900b0aE.dag/UnityEngine.SpatialTracking.ref.dll"
-r:"Library/Bee/artifacts/1900b0aE.dag/UnityEngine.UI.ref.dll"
-r:"Library/Bee/artifacts/1900b0aE.dag/UnityEngine.XR.LegacyInputHelpers.ref.dll"
"Assets/BingMapsAssets/Microsoft.Maps.Unity.Examples/CityTourExample/Scripts/SeattleTour.cs"
"Assets/BingMapsAssets/Microsoft.Maps.Unity.Examples/Common/Scripts/TransferLabelText.cs"
"Assets/BingMapsAssets/Microsoft.Maps.Unity.Examples/CustomElevationExample/Scripts/CustomElevationTileLayer.cs"
"Assets/BingMapsAssets/Microsoft.Maps.Unity.Examples/CustomElevationExample/Scripts/ToggleCustomElevationLayer.cs"
"Assets/BingMapsAssets/Microsoft.Maps.Unity.Examples/CustomElevationExample/Scripts/ToggleMapAlbedo.cs"
"Assets/BingMapsAssets/Microsoft.Maps.Unity.Examples/HudExample/Scripts/AnimateToLocation.cs"
"Assets/BingMapsAssets/Microsoft.Maps.Unity.Examples/HudExample/Scripts/CopyrightSynchronizer.cs"
"Assets/BingMapsAssets/Microsoft.Maps.Unity.Examples/HudExample/Scripts/ToggleImageryType.cs"
"Assets/BingMapsAssets/Microsoft.Maps.Unity.Examples/HudExample/Scripts/ToggleWeatherLayer.cs"
"Assets/BingMapsAssets/Microsoft.Maps.Unity.Examples/MapPinExample/Scripts/ClusterMapPinText.cs"
"Assets/BingMapsAssets/Microsoft.Maps.Unity.Examples/MapPinExample/Scripts/MapPinProvider.cs"
"Assets/BingMapsAssets/Microsoft.Maps.Unity.Examples/MapPinExample/Scripts/ZoomToClusterMapPin.cs"
"Assets/BingMapsAssets/Microsoft.Maps.Unity.Examples/MapPinExample/Scripts/ZoomToMapPin.cs"
"Assets/BingMapsAssets/Microsoft.Maps.Unity.Examples/MapServicesExample/Scripts/ReverseGeocodeOnClick.cs"
"Assets/BingMapsAssets/Microsoft.Maps.Unity.Examples/UnityARMapExample/Scripts/SettingsController.cs"
"Assets/Chart and Graph/ChartParser/ChartParser.cs"
"Assets/Chart and Graph/ChartParser/JsonParser.cs"
"Assets/Chart and Graph/ChartParser/XMLParser.cs"
"Assets/Chart and Graph/InDev/BetaOptimization/BetaOptimization.cs"
"Assets/Chart and Graph/InDev/MixedSeriesChart/CategoryFilters/IdentityCategoryFilter.cs"
"Assets/Chart and Graph/InDev/MixedSeriesChart/MixedSeriesChart.cs"
"Assets/Chart and Graph/InDev/MixedSeriesChart/MixedSeriesData.cs"
"Assets/Chart and Graph/Playmaker/AddBarCategoryAction.cs"
"Assets/Chart and Graph/Playmaker/AddCategoriesFromTemplate/BarCategoryFromTemplate.cs"
"Assets/Chart and Graph/Playmaker/AddCategoriesFromTemplate/GraphCategoryFromTemplate.cs"
"Assets/Chart and Graph/Playmaker/AddCategoriesFromTemplate/PieCategoryFromTemplate.cs"
"Assets/Chart and Graph/Playmaker/AddGraphCategory2D.cs"
"Assets/Chart and Graph/Playmaker/AddGraphCategory3D.cs"
"Assets/Chart and Graph/Playmaker/AddGroupAction.cs"
"Assets/Chart and Graph/Playmaker/AddPieCategory2D.cs"
"Assets/Chart and Graph/Playmaker/AddPieCategory3D.cs"
"Assets/Chart and Graph/Playmaker/AddRadarCategory2D.cs"
"Assets/Chart and Graph/Playmaker/AddRadarCategory3D.cs"
"Assets/Chart and Graph/Playmaker/AppendGraphPointAction.cs"
"Assets/Chart and Graph/Playmaker/CheckCategoryAction.cs"
"Assets/Chart and Graph/Playmaker/CheckGroupAction.cs"
"Assets/Chart and Graph/Playmaker/ClearGraphCategoryAction.cs"
"Assets/Chart and Graph/Playmaker/RemoveCategoryAction.cs"
"Assets/Chart and Graph/Playmaker/RemoveGroupAction.cs"
"Assets/Chart and Graph/Playmaker/SetValueBarAction.cs"
"Assets/Chart and Graph/Playmaker/SetValuePieAction.cs"
"Assets/Chart and Graph/Playmaker/SetValueRadarAction.cs"
"Assets/Chart and Graph/Script/AbstractChartData.cs"
"Assets/Chart and Graph/Script/AnyChart.cs"
"Assets/Chart and Graph/Script/Attributes/CanvasAttribute.cs"
"Assets/Chart and Graph/Script/Attributes/ChartFillerEditorAttribute.cs"
"Assets/Chart and Graph/Script/Attributes/NonCanvasAttribute.cs"
"Assets/Chart and Graph/Script/Attributes/SimpleAttribute.cs"
"Assets/Chart and Graph/Script/Axis/AutoFloat.cs"
"Assets/Chart and Graph/Script/Axis/AxisBase.cs"
"Assets/Chart and Graph/Script/Axis/AxisFormat.cs"
"Assets/Chart and Graph/Script/Axis/AxisGenerator.cs"
"Assets/Chart and Graph/Script/Axis/CanvasAxisGenerator.cs"
"Assets/Chart and Graph/Script/Axis/ChartDivisionInfo.cs"
"Assets/Chart and Graph/Script/Axis/ChartMainDivisionInfo.cs"
"Assets/Chart and Graph/Script/Axis/ChartSubDivisionInfo.cs"
"Assets/Chart and Graph/Script/Axis/HorizontalAxis.cs"
"Assets/Chart and Graph/Script/Axis/IAxisGenerator.cs"
"Assets/Chart and Graph/Script/Axis/VerticalAxis.cs"
"Assets/Chart and Graph/Script/AxisChart.cs"
"Assets/Chart and Graph/Script/BarChart/BarChart.cs"
"Assets/Chart and Graph/Script/BarChart/BarData.cs"
"Assets/Chart and Graph/Script/BarChart/BarGenerator.cs"
"Assets/Chart and Graph/Script/BarChart/BarInfo.cs"
"Assets/Chart and Graph/Script/BarChart/BarMaterialFit.cs"
"Assets/Chart and Graph/Script/BarChart/BarMesh.cs"
"Assets/Chart and Graph/Script/BarChart/BarMeshGenerator.cs"
"Assets/Chart and Graph/Script/BarChart/CanvasBarChart.cs"
"Assets/Chart and Graph/Script/BarChart/IBarGenerator.cs"
"Assets/Chart and Graph/Script/BarChart/WorldSpaceBarChart.cs"
"Assets/Chart and Graph/Script/Canvas/CanvasLines.cs"
"Assets/Chart and Graph/Script/Canvas/CanvasLinesHover.cs"
"Assets/Chart and Graph/Script/Canvas/EventHandlingGraphic.cs"
"Assets/Chart and Graph/Script/Canvas/SensitivityControl.cs"
"Assets/Chart and Graph/Script/ChartAdancedSettings.cs"
"Assets/Chart and Graph/Script/ChartCommon.cs"
"Assets/Chart and Graph/Script/ChartCommon.TextMesh.cs"
"Assets/Chart and Graph/Script/ChartData/BaseScrollableCategoryData.cs"
"Assets/Chart and Graph/Script/ChartData/BaseSlider.cs"
"Assets/Chart and Graph/Script/ChartData/IChartData.cs"
"Assets/Chart and Graph/Script/ChartData/ScrollableChartData.cs"
"Assets/Chart and Graph/Script/ChartDateUtility.cs"
"Assets/Chart and Graph/Script/ChartDivisionSide.cs"
"Assets/Chart and Graph/Script/ChartDynamicMaterial.cs"
"Assets/Chart and Graph/Script/ChartItem/CharItemEffectController.cs"
"Assets/Chart and Graph/Script/ChartItem/ChartItemEffect.cs"
"Assets/Chart and Graph/Script/ChartItem/ChartItemEvents.cs"
"Assets/Chart and Graph/Script/ChartItem/ChartItemGrowEffect.cs"
"Assets/Chart and Graph/Script/ChartItem/ChartItemLerpEffect.cs"
"Assets/Chart and Graph/Script/ChartItem/ChartItemMaterialLerpEffect.cs"
"Assets/Chart and Graph/Script/ChartItem/ChartItemTextBlend.cs"
"Assets/Chart and Graph/Script/ChartMargin.cs"
"Assets/Chart and Graph/Script/ChartMaterialController.cs"
"Assets/Chart and Graph/Script/ChartOrientation.cs"
"Assets/Chart and Graph/Script/ChartOrientedSize.cs"
"Assets/Chart and Graph/Script/Common/ChartItem.cs"
"Assets/Chart and Graph/Script/Common/ChartItemIndex.cs"
"Assets/Chart and Graph/Script/Common/ChartItemNoDelete.cs"
"Assets/Chart and Graph/Script/Common/DoubleRect.cs"
"Assets/Chart and Graph/Script/Common/DoubleVector2.cs"
"Assets/Chart and Graph/Script/Common/DoubleVector3.cs"
"Assets/Chart and Graph/Script/Common/DoubleVector4.cs"
"Assets/Chart and Graph/Script/Common/GameObjectPool.cs"
"Assets/Chart and Graph/Script/Common/ICanvas.cs"
"Assets/Chart and Graph/Script/DataFillers/GraphDataFiller.cs"
"Assets/Chart and Graph/Script/DataSource/ChartColumnCollection.cs"
"Assets/Chart and Graph/Script/DataSource/ChartDataColumn.cs"
"Assets/Chart and Graph/Script/DataSource/ChartDataItemBase.cs"
"Assets/Chart and Graph/Script/DataSource/ChartDataRow.cs"
"Assets/Chart and Graph/Script/DataSource/ChartDataSourceBase.cs"
"Assets/Chart and Graph/Script/DataSource/ChartDataSourceBaseCollection.cs"
"Assets/Chart and Graph/Script/DataSource/ChartRowCollection.cs"
"Assets/Chart and Graph/Script/DataSource/ChartSparseDataSource.cs"
"Assets/Chart and Graph/Script/DataSource/IDataItem.cs"
"Assets/Chart and Graph/Script/Exceptions/ChartDuplicateNameException.cs"
"Assets/Chart and Graph/Script/Exceptions/ChartException.cs"
"Assets/Chart and Graph/Script/Exceptions/ChartItemNotExistException.cs"
"Assets/Chart and Graph/Script/GraphChart/GraphChart.cs"
"Assets/Chart and Graph/Script/GraphChart/GraphChartBase.cs"
"Assets/Chart and Graph/Script/GraphChart/GraphData.cs"
"Assets/Chart and Graph/Script/GraphChart/WorldSpaceGraphChart.cs"
"Assets/Chart and Graph/Script/IInternalUse.cs"
"Assets/Chart and Graph/Script/InternalUseInterfaces/IInternalBarData.cs"
"Assets/Chart and Graph/Script/InternalUseInterfaces/IInternalCandleData.cs"
"Assets/Chart and Graph/Script/InternalUseInterfaces/IInternalGraphData.cs"
"Assets/Chart and Graph/Script/InternalUseInterfaces/IInternalPieData.cs"
"Assets/Chart and Graph/Script/InternalUseInterfaces/IInternalSettings.cs"
"Assets/Chart and Graph/Script/InternalUseInterfaces/InternalItemEvents.cs"
"Assets/Chart and Graph/Script/Legened/CanvasLegend.cs"
"Assets/Chart and Graph/Script/Legened/CanvasLegendItem.cs"
"Assets/Chart and Graph/Script/LegenedInfo.cs"
"Assets/Chart and Graph/Script/MaterialTiling.cs"
"Assets/Chart and Graph/Script/Mesh/CanvasChartMesh.cs"
"Assets/Chart and Graph/Script/Mesh/ChartMeshBase.cs"
"Assets/Chart and Graph/Script/Mesh/IChartMesh.cs"
"Assets/Chart and Graph/Script/Mesh/WorldSpaceChartMesh.cs"
"Assets/Chart and Graph/Script/MeshDimention.cs"
"Assets/Chart and Graph/Script/MixedSeriesChart/IMixedChartDelegate.cs"
"Assets/Chart and Graph/Script/MixedSeriesChart/IMixedSeriesProxy.cs"
"Assets/Chart and Graph/Script/MixedSeriesChart/MixedSeriesGenericValue.cs"
"Assets/Chart and Graph/Script/MonoBehaviours/ChartSettingItemBase.cs"
"Assets/Chart and Graph/Script/Path/BoxPathGenerator.cs"
"Assets/Chart and Graph/Script/Path/CustomPathGenerator.cs"
"Assets/Chart and Graph/Script/Path/CylinderPathGenerator.cs"
"Assets/Chart and Graph/Script/Path/FillPathGenerator.cs"
"Assets/Chart and Graph/Script/Path/LineRendererPathGenerator.cs"
"Assets/Chart and Graph/Script/Path/PathGenerator.cs"
"Assets/Chart and Graph/Script/Path/PathMultiplier.cs"
"Assets/Chart and Graph/Script/Path/SmoothPathGenerator.cs"
"Assets/Chart and Graph/Script/PieChart/CanvasPieChart.cs"
"Assets/Chart and Graph/Script/PieChart/IPieGenerator.cs"
"Assets/Chart and Graph/Script/PieChart/PieCanvasGenerator.cs"
"Assets/Chart and Graph/Script/PieChart/PieChart.cs"
"Assets/Chart and Graph/Script/PieChart/PieData.cs"
"Assets/Chart and Graph/Script/PieChart/PieMesh.cs"
"Assets/Chart and Graph/Script/PieChart/WorldSpacePieChart.cs"
"Assets/Chart and Graph/Script/PieChart/WorldSpacePieGenerator.cs"
"Assets/Chart and Graph/Script/RadarChart/CanvasRadarChart.cs"
"Assets/Chart and Graph/Script/RadarChart/IInternalRadarData.cs"
"Assets/Chart and Graph/Script/RadarChart/RadarChart.cs"
"Assets/Chart and Graph/Script/RadarChart/RadarChartData.cs"
"Assets/Chart and Graph/Script/RadarChart/RadarFill.cs"
"Assets/Chart and Graph/Script/RadarChart/RadarFillGenerator.cs"
"Assets/Chart and Graph/Script/RadarChart/WorldSpaceRadarChart.cs"
"Assets/Chart and Graph/Script/ScrollableAxisChart.cs"
"Assets/Chart and Graph/Script/Text/AlignedItemLabels.cs"
"Assets/Chart and Graph/Script/Text/BillboardText.cs"
"Assets/Chart and Graph/Script/Text/CategoryLabels.cs"
"Assets/Chart and Graph/Script/Text/ChartLabelAlignment.cs"
"Assets/Chart and Graph/Script/Text/ChartText.cs"
"Assets/Chart and Graph/Script/Text/GroupLabelAlignment.cs"
"Assets/Chart and Graph/Script/Text/GroupLabels.cs"
"Assets/Chart and Graph/Script/Text/ItemLabels.cs"
"Assets/Chart and Graph/Script/Text/ItemLabelsBase.cs"
"Assets/Chart and Graph/Script/Text/TextController.cs"
"Assets/Chart and Graph/Script/Text/TextDirection.cs"
"Assets/Chart and Graph/Script/Text/TextFormatting.cs"
"Assets/Chart and Graph/Script/Utils/Animation/BarAnimation.cs"
"Assets/Chart and Graph/Script/Utils/Animation/GraphAnimation.cs"
"Assets/Chart and Graph/Script/Utils/Animation/PieAnimation.cs"
"Assets/Chart and Graph/Script/Utils/AxisCoordinates.cs"
"Assets/Chart and Graph/Script/Utils/HoverText.cs"
"Assets/Chart and Graph/Script/Utils/HoverText1.cs"
"Assets/Chart and Graph/Script/Utils/InfoBox/InfoBox.cs"
"Assets/Chart and Graph/Script/Utils/Multiple Graph Demo/MultipleGraphDemo.cs"
"Assets/Chart and Graph/Script/Utils/Simple Graph Demo/SimpleGraphDemo.cs"
"Assets/Chart and Graph/Themes/2d/Radar/testMarker.cs"
"Assets/Chart and Graph/Themes/Demo/SelectScene.cs"
"Assets/Chart and Graph/Tutorials/Bar/BarChartFeed.cs"
"Assets/Chart and Graph/Tutorials/Bubble Graph/BubbleGraphFeed.cs"
"Assets/Chart and Graph/Tutorials/Graph/GraphChartFeed.cs"
"Assets/Chart and Graph/Tutorials/Large Data Graph/LargeDataFeed.cs"
"Assets/Chart and Graph/Tutorials/Marker/Marker.cs"
"Assets/Chart and Graph/Tutorials/Pie/PieChartFeed.cs"
"Assets/Chart and Graph/Tutorials/Radar/RadarChartFeed.cs"
"Assets/Chart and Graph/Tutorials/Stream Graph/StreamingGraph.cs"
"Assets/ContentFiller.cs"
"Assets/CurvedUI/Demo Scenes/Demo Scenes Content/CUI_AnimateCurvedFillOnStart.cs"
"Assets/CurvedUI/Demo Scenes/Demo Scenes Content/CUI_CameraController.cs"
"Assets/CurvedUI/Demo Scenes/Demo Scenes Content/CUI_CameraRotationOnButtonHeld.cs"
"Assets/CurvedUI/Demo Scenes/Demo Scenes Content/CUI_ChangeColor.cs"
"Assets/CurvedUI/Demo Scenes/Demo Scenes Content/CUI_ChangeValueOnHold.cs"
"Assets/CurvedUI/Demo Scenes/Demo Scenes Content/CUI_DragBetweenCanvases.cs"
"Assets/CurvedUI/Demo Scenes/Demo Scenes Content/CUI_draggable.cs"
"Assets/CurvedUI/Demo Scenes/Demo Scenes Content/CUI_GunController.cs"
"Assets/CurvedUI/Demo Scenes/Demo Scenes Content/CUI_GunMovement.cs"
"Assets/CurvedUI/Demo Scenes/Demo Scenes Content/CUI_inventory_paralax.cs"
"Assets/CurvedUI/Demo Scenes/Demo Scenes Content/CUI_MoveAlong.cs"
"Assets/CurvedUI/Demo Scenes/Demo Scenes Content/CUI_MoveHeartbeat.cs"
"Assets/CurvedUI/Demo Scenes/Demo Scenes Content/CUI_OrientOnCurvedSpace.cs"
"Assets/CurvedUI/Demo Scenes/Demo Scenes Content/CUI_PerlinNoisePosition.cs"
"Assets/CurvedUI/Demo Scenes/Demo Scenes Content/CUI_PerlinNoiseRotation.cs"
"Assets/CurvedUI/Demo Scenes/Demo Scenes Content/CUI_PickImageFromSet.cs"
"Assets/CurvedUI/Demo Scenes/Demo Scenes Content/CUI_RaycastToCanvas.cs"
"Assets/CurvedUI/Demo Scenes/Demo Scenes Content/CUI_RiseChildrenOverTime.cs"
"Assets/CurvedUI/Demo Scenes/Demo Scenes Content/CUI_rotation_anim.cs"
"Assets/CurvedUI/Demo Scenes/Demo Scenes Content/CUI_ShowParentCoordinates.cs"
"Assets/CurvedUI/Demo Scenes/Demo Scenes Content/CUI_TMPChecker.cs"
"Assets/CurvedUI/Demo Scenes/Demo Scenes Content/CUI_touchpad.cs"
"Assets/CurvedUI/Demo Scenes/Demo Scenes Content/CUI_ViveButtonState.cs"
"Assets/CurvedUI/Demo Scenes/Demo Scenes Content/CUI_ViveHapticPulse.cs"
"Assets/CurvedUI/Demo Scenes/Demo Scenes Content/CUI_WorldSpaceCursorFollow.cs"
"Assets/CurvedUI/Demo Scenes/Demo Scenes Content/CUI_WorldSpaceMouseMultipleCanvases.cs"
"Assets/CurvedUI/Scripts/CurvedUIEventSystem.cs"
"Assets/CurvedUI/Scripts/CurvedUIExtensionMethods.cs"
"Assets/CurvedUI/Scripts/CurvedUIHandSwitcher.cs"
"Assets/CurvedUI/Scripts/CurvedUIInputFieldCaret.cs"
"Assets/CurvedUI/Scripts/CurvedUIInputModule.cs"
"Assets/CurvedUI/Scripts/CurvedUILaserBeam.cs"
"Assets/CurvedUI/Scripts/CurvedUIPhysicsRaycaster.cs"
"Assets/CurvedUI/Scripts/CurvedUIPointerEventData.cs"
"Assets/CurvedUI/Scripts/CurvedUIRaycaster.cs"
"Assets/CurvedUI/Scripts/CurvedUISettings.cs"
"Assets/CurvedUI/Scripts/CurvedUIVertexEffect.cs"
"Assets/CurvedUI/Scripts/CurvedUIViveController.cs"
"Assets/CurvedUI/Scripts/Experimental/CurvedUITMP.cs"
"Assets/CurvedUI/Scripts/Experimental/CurvedUITMPInputFieldCaret.cs"
"Assets/CurvedUI/Scripts/Experimental/CurvedUITMPSubmesh.cs"
"Assets/CurvedUI/Scripts/OptionalDependencyAttribute.cs"
"Assets/First person controller/Components/Crouch.cs"
"Assets/First person controller/Components/GroundCheck.cs"
"Assets/First person controller/Components/Jump.cs"
"Assets/First person controller/Components/Zoom.cs"
"Assets/First person controller/FirstPersonLook.cs"
"Assets/First person controller/FirstPersonMovement.cs"
"Assets/keepAnimatorControllerStateOnDisable.cs"
"Assets/LeanTween/Examples/Archived/OldGUIExamplesCS.cs"
"Assets/LeanTween/Examples/Archived/TestingPunch.cs"
"Assets/LeanTween/Examples/Archived/TestingRigidbodyCS.cs"
"Assets/LeanTween/Examples/Scripts/Following.cs"
"Assets/LeanTween/Examples/Scripts/GeneralAdvancedTechniques.cs"
"Assets/LeanTween/Examples/Scripts/GeneralBasic.cs"
"Assets/LeanTween/Examples/Scripts/GeneralBasics2d.cs"
"Assets/LeanTween/Examples/Scripts/GeneralCameraShake.cs"
"Assets/LeanTween/Examples/Scripts/GeneralEasingTypes.cs"
"Assets/LeanTween/Examples/Scripts/GeneralEventsListeners.cs"
"Assets/LeanTween/Examples/Scripts/GeneralSequencer.cs"
"Assets/LeanTween/Examples/Scripts/GeneralSimpleUI.cs"
"Assets/LeanTween/Examples/Scripts/GeneralUISpace.cs"
"Assets/LeanTween/Examples/Scripts/LogoCinematic.cs"
"Assets/LeanTween/Examples/Scripts/PathBezier.cs"
"Assets/LeanTween/Examples/Scripts/PathBezier2d.cs"
"Assets/LeanTween/Examples/Scripts/PathSpline.cs"
"Assets/LeanTween/Examples/Scripts/PathSpline2d.cs"
"Assets/LeanTween/Examples/Scripts/PathSplineEndless.cs"
"Assets/LeanTween/Examples/Scripts/PathSplinePerformance.cs"
"Assets/LeanTween/Examples/Scripts/PathSplines.cs"
"Assets/LeanTween/Examples/Scripts/PathSplineTrack.cs"
"Assets/LeanTween/Examples/Scripts/TestingUnitTests.cs"
"Assets/LeanTween/Examples/Scripts/TestingZLegacy.cs"
"Assets/LeanTween/Examples/Scripts/TestingZLegacyExt.cs"
"Assets/LeanTween/Framework/LeanAudio.cs"
"Assets/LeanTween/Framework/LeanSmooth.cs"
"Assets/LeanTween/Framework/LeanTest.cs"
"Assets/LeanTween/Framework/LeanTween.cs"
"Assets/LeanTween/Framework/LeanTweenExt.cs"
"Assets/LeanTween/Framework/LTDescr.cs"
"Assets/LeanTween/Framework/LTDescrOptional.cs"
"Assets/LeanTween/Framework/LTSeq.cs"
"Assets/Modern UI Pack/Scripts/Animated Icon/AnimatedIconHandler.cs"
"Assets/Modern UI Pack/Scripts/Button/ButtonManager.cs"
"Assets/Modern UI Pack/Scripts/Button/ButtonManagerBasic.cs"
"Assets/Modern UI Pack/Scripts/Button/ButtonManagerBasicEditor.cs"
"Assets/Modern UI Pack/Scripts/Button/ButtonManagerBasicIcon.cs"
"Assets/Modern UI Pack/Scripts/Button/ButtonManagerBasicIconEditor.cs"
"Assets/Modern UI Pack/Scripts/Button/ButtonManagerBasicWithIcon.cs"
"Assets/Modern UI Pack/Scripts/Button/ButtonManagerBasicWithIconEditor.cs"
"Assets/Modern UI Pack/Scripts/Button/ButtonManagerEditor.cs"
"Assets/Modern UI Pack/Scripts/Button/ButtonManagerIcon.cs"
"Assets/Modern UI Pack/Scripts/Button/ButtonManagerIconEditor.cs"
"Assets/Modern UI Pack/Scripts/Button/ButtonManagerWithIcon.cs"
"Assets/Modern UI Pack/Scripts/Button/ButtonManagerWithIconEditor.cs"
"Assets/Modern UI Pack/Scripts/Context Menu/ContextMenuContent.cs"
"Assets/Modern UI Pack/Scripts/Context Menu/ContextMenuManager.cs"
"Assets/Modern UI Pack/Scripts/Context Menu/ContextMenuManagerEditor.cs"
"Assets/Modern UI Pack/Scripts/Demo/DemoListShadow.cs"
"Assets/Modern UI Pack/Scripts/Demo/DemoTopButton.cs"
"Assets/Modern UI Pack/Scripts/Demo/LaunchURL.cs"
"Assets/Modern UI Pack/Scripts/Dropdown/CustomDropdown.cs"
"Assets/Modern UI Pack/Scripts/Dropdown/CustomDropdownEditor.cs"
"Assets/Modern UI Pack/Scripts/Dropdown/DropdownMultiSelect.cs"
"Assets/Modern UI Pack/Scripts/Dropdown/DropdownMultiSelectEditor.cs"
"Assets/Modern UI Pack/Scripts/Fixes/LayoutGroupPositionFix.cs"
"Assets/Modern UI Pack/Scripts/Fixes/UIElementInFront.cs"
"Assets/Modern UI Pack/Scripts/Horizontal Selector/HorizontalSelector.cs"
"Assets/Modern UI Pack/Scripts/Horizontal Selector/HorizontalSelectorEditor.cs"
"Assets/Modern UI Pack/Scripts/Input Field/CustomInputField.cs"
"Assets/Modern UI Pack/Scripts/Modal Window/ModalWindowManager.cs"
"Assets/Modern UI Pack/Scripts/Modal Window/ModalWindowManagerEditor.cs"
"Assets/Modern UI Pack/Scripts/Modal Window/ModalWindowTabs.cs"
"Assets/Modern UI Pack/Scripts/Notification/NotificationManager.cs"
"Assets/Modern UI Pack/Scripts/Notification/NotificationManagerEditor.cs"
"Assets/Modern UI Pack/Scripts/Notification/NotificationStacking.cs"
"Assets/Modern UI Pack/Scripts/Progress Bar/PBFilled.cs"
"Assets/Modern UI Pack/Scripts/Progress Bar/ProgressBar.cs"
"Assets/Modern UI Pack/Scripts/Progress Bar/ProgressBarEditor.cs"
"Assets/Modern UI Pack/Scripts/Rendering/UIGradient.cs"
"Assets/Modern UI Pack/Scripts/Rendering/UIGradientEditor.cs"
"Assets/Modern UI Pack/Scripts/Slider/RadialSlider.cs"
"Assets/Modern UI Pack/Scripts/Slider/RadialSliderEditor.cs"
"Assets/Modern UI Pack/Scripts/Slider/RangeMaxSlider.cs"
"Assets/Modern UI Pack/Scripts/Slider/RangeMinSlider.cs"
"Assets/Modern UI Pack/Scripts/Slider/RangeSlider.cs"
"Assets/Modern UI Pack/Scripts/Slider/SliderManager.cs"
"Assets/Modern UI Pack/Scripts/Slider/SliderManagerEditor.cs"
"Assets/Modern UI Pack/Scripts/Switch/SwitchManager.cs"
"Assets/Modern UI Pack/Scripts/Switch/SwitchManagerEditor.cs"
"Assets/Modern UI Pack/Scripts/Toggle/ToggleAnim.cs"
"Assets/Modern UI Pack/Scripts/Tooltip/TooltipContent.cs"
"Assets/Modern UI Pack/Scripts/Tooltip/TooltipManager.cs"
"Assets/Modern UI Pack/Scripts/Tooltip/TooltipManagerEditor.cs"
"Assets/Modern UI Pack/Scripts/UI Manager/UIManager.cs"
"Assets/Modern UI Pack/Scripts/UI Manager/UIManagerAnimatedIcon.cs"
"Assets/Modern UI Pack/Scripts/UI Manager/UIManagerButton.cs"
"Assets/Modern UI Pack/Scripts/UI Manager/UIManagerButtonEditor.cs"
"Assets/Modern UI Pack/Scripts/UI Manager/UIManagerContextMenu.cs"
"Assets/Modern UI Pack/Scripts/UI Manager/UIManagerDropdown.cs"
"Assets/Modern UI Pack/Scripts/UI Manager/UIManagerHSelector.cs"
"Assets/Modern UI Pack/Scripts/UI Manager/UIManagerInputField.cs"
"Assets/Modern UI Pack/Scripts/UI Manager/UIManagerModalWindow.cs"
"Assets/Modern UI Pack/Scripts/UI Manager/UIManagerNotification.cs"
"Assets/Modern UI Pack/Scripts/UI Manager/UIManagerProgressBar.cs"
"Assets/Modern UI Pack/Scripts/UI Manager/UIManagerProgressBarLoop.cs"
"Assets/Modern UI Pack/Scripts/UI Manager/UIManagerProgressBarLoopEditor.cs"
"Assets/Modern UI Pack/Scripts/UI Manager/UIManagerScrollbar.cs"
"Assets/Modern UI Pack/Scripts/UI Manager/UIManagerSlider.cs"
"Assets/Modern UI Pack/Scripts/UI Manager/UIManagerSliderEditor.cs"
"Assets/Modern UI Pack/Scripts/UI Manager/UIManagerSwitch.cs"
"Assets/Modern UI Pack/Scripts/UI Manager/UIManagerToggle.cs"
"Assets/Modern UI Pack/Scripts/UI Manager/UIManagerTooltip.cs"
"Assets/Modern UI Pack/Scripts/Window/WindowDragger.cs"
"Assets/Modern UI Pack/Scripts/Window/WindowManager.cs"
"Assets/Modern UI Pack/Scripts/Window/WindowManagerEditor.cs"
"Assets/Oculus/SampleFramework/Core/DebugUI/Scripts/DebugUIBuilder.cs"
"Assets/Oculus/SampleFramework/Core/DebugUI/Scripts/HandedInputSelector.cs"
"Assets/Oculus/SampleFramework/Core/DebugUI/Scripts/LaserPointer.cs"
"Assets/Oculus/SampleFramework/Usage/DebugUI/DebugUISample.cs"
"Assets/OmniSARTechnologies/Common/Helper/GUI/ColorHelper.cs"
"Assets/OmniSARTechnologies/Common/Helper/Reflection/CustomAttributes.cs"
"Assets/OmniSARTechnologies/Common/Helper/Transforms/TransformRotate.cs"
"Assets/OmniSARTechnologies/LiteFPSCounter/Demo/Scripts/HeavyRenderingController.cs"
"Assets/OmniSARTechnologies/LiteFPSCounter/Demo/Scripts/SimpleSceneSwitcher.cs"
"Assets/OmniSARTechnologies/LiteFPSCounter/Scripts/LiteFPSCounter.cs"
"Assets/PostProcessing/Runtime/Attributes/GetSetAttribute.cs"
"Assets/PostProcessing/Runtime/Attributes/MinAttribute.cs"
"Assets/PostProcessing/Runtime/Attributes/TrackballAttribute.cs"
"Assets/PostProcessing/Runtime/Attributes/TrackballGroupAttribute.cs"
"Assets/PostProcessing/Runtime/Components/AmbientOcclusionComponent.cs"
"Assets/PostProcessing/Runtime/Components/BloomComponent.cs"
"Assets/PostProcessing/Runtime/Components/BuiltinDebugViewsComponent.cs"
"Assets/PostProcessing/Runtime/Components/ChromaticAberrationComponent.cs"
"Assets/PostProcessing/Runtime/Components/ColorGradingComponent.cs"
"Assets/PostProcessing/Runtime/Components/DepthOfFieldComponent.cs"
"Assets/PostProcessing/Runtime/Components/DitheringComponent.cs"
"Assets/PostProcessing/Runtime/Components/EyeAdaptationComponent.cs"
"Assets/PostProcessing/Runtime/Components/FogComponent.cs"
"Assets/PostProcessing/Runtime/Components/FxaaComponent.cs"
"Assets/PostProcessing/Runtime/Components/GrainComponent.cs"
"Assets/PostProcessing/Runtime/Components/MotionBlurComponent.cs"
"Assets/PostProcessing/Runtime/Components/ScreenSpaceReflectionComponent.cs"
"Assets/PostProcessing/Runtime/Components/TaaComponent.cs"
"Assets/PostProcessing/Runtime/Components/UserLutComponent.cs"
"Assets/PostProcessing/Runtime/Components/VignetteComponent.cs"
"Assets/PostProcessing/Runtime/Models/AmbientOcclusionModel.cs"
"Assets/PostProcessing/Runtime/Models/AntialiasingModel.cs"
"Assets/PostProcessing/Runtime/Models/BloomModel.cs"
"Assets/PostProcessing/Runtime/Models/BuiltinDebugViewsModel.cs"
"Assets/PostProcessing/Runtime/Models/ChromaticAberrationModel.cs"
"Assets/PostProcessing/Runtime/Models/ColorGradingModel.cs"
"Assets/PostProcessing/Runtime/Models/DepthOfFieldModel.cs"
"Assets/PostProcessing/Runtime/Models/DitheringModel.cs"
"Assets/PostProcessing/Runtime/Models/EyeAdaptationModel.cs"
"Assets/PostProcessing/Runtime/Models/FogModel.cs"
"Assets/PostProcessing/Runtime/Models/GrainModel.cs"
"Assets/PostProcessing/Runtime/Models/MotionBlurModel.cs"
"Assets/PostProcessing/Runtime/Models/ScreenSpaceReflectionModel.cs"
"Assets/PostProcessing/Runtime/Models/UserLutModel.cs"
"Assets/PostProcessing/Runtime/Models/VignetteModel.cs"
"Assets/PostProcessing/Runtime/PostProcessingBehaviour.cs"
"Assets/PostProcessing/Runtime/PostProcessingComponent.cs"
"Assets/PostProcessing/Runtime/PostProcessingContext.cs"
"Assets/PostProcessing/Runtime/PostProcessingModel.cs"
"Assets/PostProcessing/Runtime/PostProcessingProfile.cs"
"Assets/PostProcessing/Runtime/Utils/ColorGradingCurve.cs"
"Assets/PostProcessing/Runtime/Utils/GraphicsUtils.cs"
"Assets/PostProcessing/Runtime/Utils/MaterialFactory.cs"
"Assets/PostProcessing/Runtime/Utils/RenderTextureFactory.cs"
"Assets/PostProcessing/Utilities/CustomMotionTexture/ExampleWheelController.cs"
"Assets/Scripts/Animator/AnimActions.cs"
"Assets/Scripts/Animator/Map3DAnimActions.cs"
"Assets/Scripts/AudioFile.cs"
"Assets/Scripts/Auth/Login.cs"
"Assets/Scripts/Auth/UserInfo.cs"
"Assets/Scripts/Comunidad_info.cs"
"Assets/Scripts/DataTimer.cs"
"Assets/Scripts/GeoJson/BingMapsAPI.cs"
"Assets/Scripts/GeoJson/GeoJsonParser.cs"
"Assets/Scripts/GeoJson/Mathematics.cs"
"Assets/Scripts/GeoJson/Polygon.cs"
"Assets/Scripts/GeometryButton.cs"
"Assets/Scripts/Graphs/GraphFiller.cs"
"Assets/Scripts/Location System/EstructuraComunidad/Centro.cs"
"Assets/Scripts/Location System/EstructuraComunidad/Comunidad.cs"
"Assets/Scripts/Location System/EstructuraComunidad/Provincia.cs"
"Assets/Scripts/Location System/TowerGeometry.cs"
"Assets/Scripts/Location System/TowerGeometry_VR.cs"
"Assets/Scripts/Map System/AlignToMap.cs"
"Assets/Scripts/Map System/MapVis.cs"
"Assets/Scripts/Procedural Mesh Generator/ProceduralPlane.cs"
"Assets/Scripts/Procedural Mesh Generator/Triangulator.cs"
"Assets/Scripts/pwdInputFieldUtils.cs"
"Assets/Scripts/SelectorHorizontal.cs"
"Assets/Scripts/Towers/Estructura Torres/FM/Heredadas/TorreCellnex.cs"
"Assets/Scripts/Towers/Estructura Torres/FM/Heredadas/TorreFM1.cs"
"Assets/Scripts/Towers/Estructura Torres/FM/Heredadas/TorreFM2.cs"
"Assets/Scripts/Towers/Estructura Torres/FM/Heredadas/TorreFM3.cs"
"Assets/Scripts/Towers/Estructura Torres/FM/Heredadas/TorreFM4.cs"
"Assets/Scripts/Towers/Estructura Torres/FM/Heredadas/TorreFM5.cs"
"Assets/Scripts/Towers/Estructura Torres/FM/Heredadas/TorreFM6.cs"
"Assets/Scripts/Towers/Estructura Torres/FM/Heredadas/TorreOM.cs"
"Assets/Scripts/Towers/Estructura Torres/FM/TorreFM.cs"
"Assets/Scripts/Towers/Estructura Torres/TorreBase.cs"
"Assets/Scripts/Utils/GlobalController.cs"
"Assets/Scripts/Utils/jsonReader.cs"
"Assets/Scripts/Utils/LoadingCircle.cs"
"Assets/Scripts/Utils/LookToCamera.cs"
"Assets/Scripts/Utils/rtveAPI.cs"
"Assets/Scripts/Utils/SimpleJSON/SimpleJSON.cs"
"Assets/Scripts/Utils/SimpleJSON/SimpleJSONBinary.cs"
"Assets/Scripts/Utils/SimpleJSON/SimpleJSONUnity.cs"
"Assets/Scripts/Utils/TreeView.cs"
"Assets/Scripts/Utils/UIReferences.cs"
"Assets/Scripts/Utils/UserData.cs"
"Assets/Scripts/Utils/Utils.cs"
"Assets/Scripts/Weather System/Weather.cs"
"Assets/Scripts/Weather System/WeatherAPI.cs"
"Assets/test.cs"
"Assets/UniStorm Weather System/Scripts/Clouds/GenerateNoise.cs"
"Assets/UniStorm Weather System/Scripts/Clouds/ProceduralHemispherePolarUVs.cs"
"Assets/UniStorm Weather System/Scripts/Clouds/ScreenSpaceCloudShadows.cs"
"Assets/UniStorm Weather System/Scripts/Clouds/UniStormClouds.cs"
"Assets/UniStorm Weather System/Scripts/Components/DespawnObjectUniStorm.cs"
"Assets/UniStorm Weather System/Scripts/Components/FadeLightEffect.cs"
"Assets/UniStorm Weather System/Scripts/Components/FadeParticleEffect.cs"
"Assets/UniStorm Weather System/Scripts/Components/FireLight.cs"
"Assets/UniStorm Weather System/Scripts/Components/LightningStrike.cs"
"Assets/UniStorm Weather System/Scripts/Demo/DemoUIController.cs"
"Assets/UniStorm Weather System/Scripts/Demo/FPSCounter.cs"
"Assets/UniStorm Weather System/Scripts/Demo/Pause.cs"
"Assets/UniStorm Weather System/Scripts/Demo/UniStormCharacterController.cs"
"Assets/UniStorm Weather System/Scripts/Demo/UniStormMouseLook.cs"
"Assets/UniStorm Weather System/Scripts/Demo/UniStormUIDisplay.cs"
"Assets/UniStorm Weather System/Scripts/Effects/UniStormAtmosphericFog.cs"
"Assets/UniStorm Weather System/Scripts/Effects/UniStormPostEffectsBase.cs"
"Assets/UniStorm Weather System/Scripts/Effects/UniStormSunShafts.cs"
"Assets/UniStorm Weather System/Scripts/Examples/DisableWeatherByTrigger.cs"
"Assets/UniStorm Weather System/Scripts/Examples/LightningEvent.cs"
"Assets/UniStorm Weather System/Scripts/Examples/SaveAndLoad.cs"
"Assets/UniStorm Weather System/Scripts/Examples/TurnOffLight.cs"
"Assets/UniStorm Weather System/Scripts/Examples/UniStormCTSController.cs"
"Assets/UniStorm Weather System/Scripts/Examples/WeatherTypeByTrigger.cs"
"Assets/UniStorm Weather System/Scripts/System/CloudProfile.cs"
"Assets/UniStorm Weather System/Scripts/System/LightningSystem.cs"
"Assets/UniStorm Weather System/Scripts/System/Perlin.cs"
"Assets/UniStorm Weather System/Scripts/System/UniStormManager.cs"
"Assets/UniStorm Weather System/Scripts/System/UniStormPool.cs"
"Assets/UniStorm Weather System/Scripts/System/UniStormProfile.cs"
"Assets/UniStorm Weather System/Scripts/System/UniStormSystem.cs"
"Assets/UniStorm Weather System/Scripts/System/WeatherType.cs"
-langversion:8.0

/deterministic
/optimize+
/debug:portable
/nologo
/RuntimeMetadataVersion:v4.0.30319

/nowarn:0169
/nowarn:0649
/utf8output
/preferreduilang:en-US
